<?xml version="1.0" encoding="UTF-8" standalone="no"?><svg xmlns="http://www.w3.org/2000/svg" xmlns:xlink="http://www.w3.org/1999/xlink" contentScriptType="application/ecmascript" contentStyleType="text/css" height="1957px" preserveAspectRatio="none" style="width:2013px;height:1957px;" version="1.1" viewBox="0 0 2013 1957" width="2013px" zoomAndPan="magnify"><defs><filter height="300%" id="f1e69id0rhml3t" width="300%" x="-1" y="-1"><feGaussianBlur result="blurOut" stdDeviation="2.0"/><feColorMatrix in="blurOut" result="blurOut2" type="matrix" values="0 0 0 0 0 0 0 0 0 0 0 0 0 0 0 0 0 0 .4 0"/><feOffset dx="4.0" dy="4.0" in="blurOut2" result="blurOut3"/><feBlend in="SourceGraphic" in2="blurOut3" mode="normal"/></filter></defs><g><text fill="#000000" font-family="sans-serif" font-size="18" lengthAdjust="spacingAndGlyphs" textLength="351" x="838.5" y="16.708">"pEp remailer (deploymment diagram)"</text><!--MD5=[59a7dfdd1ac718060fc62233fae003a5]
cluster Ada--><polygon fill="#FFFFFF" filter="url(#f1e69id0rhml3t)" points="14,100.9531,24,90.9531,362,90.9531,362,664.9531,352,674.9531,14,674.9531,14,100.9531" style="stroke: #000000; stroke-width: 1.5;"/><line style="stroke: #000000; stroke-width: 1.5;" x1="352" x2="361" y1="100.9531" y2="91.9531"/><line style="stroke: #000000; stroke-width: 1.5;" x1="14" x2="352" y1="100.9531" y2="100.9531"/><line style="stroke: #000000; stroke-width: 1.5;" x1="352" x2="352" y1="100.9531" y2="674.9531"/><text fill="#000000" font-family="sans-serif" font-size="14" font-weight="bold" lengthAdjust="spacingAndGlyphs" textLength="147" x="110.5" y="116.9482">Ada's mobile (Ada)</text><!--MD5=[bd7f874580dad02f43a07add0b354126]
cluster mail.pEp.foundation (A)--><polygon fill="#FFFFFF" filter="url(#f1e69id0rhml3t)" points="426,353.4531,436,343.4531,685,343.4531,685,409.4531,675,419.4531,426,419.4531,426,353.4531" style="stroke: #000000; stroke-width: 1.5;"/><line style="stroke: #000000; stroke-width: 1.5;" x1="675" x2="684" y1="353.4531" y2="344.4531"/><line style="stroke: #000000; stroke-width: 1.5;" x1="426" x2="675" y1="353.4531" y2="353.4531"/><line style="stroke: #000000; stroke-width: 1.5;" x1="675" x2="675" y1="353.4531" y2="419.4531"/><text fill="#000000" font-family="sans-serif" font-size="14" font-weight="bold" lengthAdjust="spacingAndGlyphs" textLength="183" x="460" y="369.4482">mail.pEp.foundation (A)</text><!--MD5=[3ac0ab816bd3ac1407bf1ea9f71e3a06]
cluster N1--><polygon fill="#FFFFFF" filter="url(#f1e69id0rhml3t)" points="370,578.9531,380,568.9531,652,568.9531,652,1214.4531,642,1224.4531,370,1224.4531,370,578.9531" style="stroke: #000000; stroke-width: 1.5;"/><line style="stroke: #000000; stroke-width: 1.5;" x1="642" x2="651" y1="578.9531" y2="569.9531"/><line style="stroke: #000000; stroke-width: 1.5;" x1="370" x2="642" y1="578.9531" y2="578.9531"/><line style="stroke: #000000; stroke-width: 1.5;" x1="642" x2="642" y1="578.9531" y2="1224.4531"/><text fill="#000000" font-family="sans-serif" font-size="14" font-weight="bold" lengthAdjust="spacingAndGlyphs" textLength="206" x="404" y="594.9482">mail.systemli.org (Node 1)</text><!--MD5=[d3c6377a82c9f37633443681a873ce9a]
cluster pN1--><rect fill="#FFFFFF" filter="url(#f1e69id0rhml3t)" height="74" style="stroke: #000000; stroke-width: 1.5;" width="220" x="403" y="600.9531"/><rect fill="#FFFFFF" height="10" style="stroke: #000000; stroke-width: 1.5;" width="15" x="603" y="605.9531"/><rect fill="#FFFFFF" height="2" style="stroke: #000000; stroke-width: 1.5;" width="4" x="601" y="607.9531"/><rect fill="#FFFFFF" height="2" style="stroke: #000000; stroke-width: 1.5;" width="4" x="601" y="611.9531"/><text fill="#000000" font-family="sans-serif" font-size="14" font-weight="bold" lengthAdjust="spacingAndGlyphs" textLength="122" x="452" y="626.9482">Postfix daemon</text><!--MD5=[0133f043c69789dc4cd58214554b94f1]
cluster N2--><polygon fill="#FFFFFF" filter="url(#f1e69id0rhml3t)" points="660,858.4531,670,848.4531,926,848.4531,926,1460.4531,916,1470.4531,660,1470.4531,660,858.4531" style="stroke: #000000; stroke-width: 1.5;"/><line style="stroke: #000000; stroke-width: 1.5;" x1="916" x2="925" y1="858.4531" y2="849.4531"/><line style="stroke: #000000; stroke-width: 1.5;" x1="660" x2="916" y1="858.4531" y2="858.4531"/><line style="stroke: #000000; stroke-width: 1.5;" x1="916" x2="916" y1="858.4531" y2="1470.4531"/><text fill="#000000" font-family="sans-serif" font-size="14" font-weight="bold" lengthAdjust="spacingAndGlyphs" textLength="190" x="694" y="874.4482">mail.riseup.net (Node 2)</text><!--MD5=[5a9136906f9ddd1571af6890d408ac23]
cluster pN2--><rect fill="#FFFFFF" filter="url(#f1e69id0rhml3t)" height="74" style="stroke: #000000; stroke-width: 1.5;" width="220" x="683" y="880.4531"/><rect fill="#FFFFFF" height="10" style="stroke: #000000; stroke-width: 1.5;" width="15" x="883" y="885.4531"/><rect fill="#FFFFFF" height="2" style="stroke: #000000; stroke-width: 1.5;" width="4" x="881" y="887.4531"/><rect fill="#FFFFFF" height="2" style="stroke: #000000; stroke-width: 1.5;" width="4" x="881" y="891.4531"/><text fill="#000000" font-family="sans-serif" font-size="14" font-weight="bold" lengthAdjust="spacingAndGlyphs" textLength="122" x="732" y="906.4482">Postfix daemon</text><!--MD5=[94d4f293082bb29d6657031248a3b2ed]
cluster N3--><polygon fill="#FFFFFF" filter="url(#f1e69id0rhml3t)" points="934,1128.4531,944,1118.4531,1210,1118.4531,1210,1705.9531,1200,1715.9531,934,1715.9531,934,1128.4531" style="stroke: #000000; stroke-width: 1.5;"/><line style="stroke: #000000; stroke-width: 1.5;" x1="1200" x2="1209" y1="1128.4531" y2="1119.4531"/><line style="stroke: #000000; stroke-width: 1.5;" x1="934" x2="1200" y1="1128.4531" y2="1128.4531"/><line style="stroke: #000000; stroke-width: 1.5;" x1="1200" x2="1200" y1="1128.4531" y2="1715.9531"/><text fill="#000000" font-family="sans-serif" font-size="14" font-weight="bold" lengthAdjust="spacingAndGlyphs" textLength="200" x="968" y="1144.4482">mail.wauland.de (Node 3)</text><!--MD5=[30b440468d657b2d7d19cf720654fddd]
cluster pN3--><rect fill="#FFFFFF" filter="url(#f1e69id0rhml3t)" height="74" style="stroke: #000000; stroke-width: 1.5;" width="220" x="962" y="1150.4531"/><rect fill="#FFFFFF" height="10" style="stroke: #000000; stroke-width: 1.5;" width="15" x="1162" y="1155.4531"/><rect fill="#FFFFFF" height="2" style="stroke: #000000; stroke-width: 1.5;" width="4" x="1160" y="1157.4531"/><rect fill="#FFFFFF" height="2" style="stroke: #000000; stroke-width: 1.5;" width="4" x="1160" y="1161.4531"/><text fill="#000000" font-family="sans-serif" font-size="14" font-weight="bold" lengthAdjust="spacingAndGlyphs" textLength="122" x="1011" y="1176.4482">Postfix daemon</text><!--MD5=[6eeb80080c0ed3c440ef740055118014]
cluster Betty--><polygon fill="#FFFFFF" filter="url(#f1e69id0rhml3t)" points="1218,1646.9531,1228,1636.9531,1453,1636.9531,1453,1867.9531,1443,1877.9531,1218,1877.9531,1218,1646.9531" style="stroke: #000000; stroke-width: 1.5;"/><line style="stroke: #000000; stroke-width: 1.5;" x1="1443" x2="1452" y1="1646.9531" y2="1637.9531"/><line style="stroke: #000000; stroke-width: 1.5;" x1="1218" x2="1443" y1="1646.9531" y2="1646.9531"/><line style="stroke: #000000; stroke-width: 1.5;" x1="1443" x2="1443" y1="1646.9531" y2="1877.9531"/><text fill="#000000" font-family="sans-serif" font-size="14" font-weight="bold" lengthAdjust="spacingAndGlyphs" textLength="108" x="1277.5" y="1662.9482">Betty's laptop</text><!--MD5=[f7217341b3bb6bbf768c7f0e049f8d09]
cluster Legend--><rect fill="#FFFFFF" filter="url(#f1e69id0rhml3t)" height="1197" style="stroke: #000000; stroke-width: 1.5;" width="567" x="1435" y="36.9531"/><text fill="#000000" font-family="sans-serif" font-size="14" font-weight="bold" lengthAdjust="spacingAndGlyphs" textLength="59" x="1689" y="51.9482">Legend</text><!--MD5=[555b6d4e0f28f720b243f276b4bb930a]
cluster hardware--><polygon fill="#FFFFFF" filter="url(#f1e69id0rhml3t)" points="1547,73.9531,1557,63.9531,1858,63.9531,1858,674.4531,1848,684.4531,1547,684.4531,1547,73.9531" style="stroke: #000000; stroke-width: 1.5;"/><line style="stroke: #000000; stroke-width: 1.5;" x1="1848" x2="1857" y1="73.9531" y2="64.9531"/><line style="stroke: #000000; stroke-width: 1.5;" x1="1547" x2="1848" y1="73.9531" y2="73.9531"/><line style="stroke: #000000; stroke-width: 1.5;" x1="1848" x2="1848" y1="73.9531" y2="684.4531"/><text fill="#000000" font-family="sans-serif" font-size="14" font-weight="bold" lengthAdjust="spacingAndGlyphs" textLength="76" x="1660.5" y="89.9482">hardware</text><!--MD5=[9b24b84c8e9aaf8f8773c7ae1b6f9be7]
cluster Group of processes--><rect fill="#FFFFFF" filter="url(#f1e69id0rhml3t)" height="74" style="stroke: #000000; stroke-width: 1.5;" width="214" x="1636" y="95.9531"/><rect fill="#FFFFFF" height="10" style="stroke: #000000; stroke-width: 1.5;" width="15" x="1830" y="100.9531"/><rect fill="#FFFFFF" height="2" style="stroke: #000000; stroke-width: 1.5;" width="4" x="1828" y="102.9531"/><rect fill="#FFFFFF" height="2" style="stroke: #000000; stroke-width: 1.5;" width="4" x="1828" y="106.9531"/><text fill="#000000" font-family="sans-serif" font-size="14" font-weight="bold" lengthAdjust="spacingAndGlyphs" textLength="158" x="1664" y="121.9482">Group of processes</text><!--MD5=[4541fb81c80c07473fe4b07432ef0971]
entity app--><rect fill="#FEFECE" filter="url(#f1e69id0rhml3t)" height="39.2969" style="stroke: #000000; stroke-width: 1.5;" width="141" x="174.5" y="122.9531"/><polygon fill="#FEFECE" points="298.5,127.9531,298.5,141.9531,310.5,141.9531,310.5,133.9531,304.5,127.9531,298.5,127.9531" style="stroke: #000000; stroke-width: 1.5;"/><line style="stroke: #000000; stroke-width: 1.5;" x1="304.5" x2="304.5" y1="127.9531" y2="133.9531"/><line style="stroke: #000000; stroke-width: 1.5;" x1="310.5" x2="304.5" y1="133.9531" y2="133.9531"/><text fill="#000000" font-family="sans-serif" font-size="14" lengthAdjust="spacingAndGlyphs" textLength="111" x="184.5" y="148.9482">pEp{.apk, .exe}</text><!--MD5=[ddf328733c6c95ede0155beec138d645]
entity perA--><rect fill="#FEFECE" filter="url(#f1e69id0rhml3t)" height="39.2969" style="stroke: #000000; stroke-width: 1.5;" width="332" x="22" y="627.9531"/><polygon fill="#FEFECE" points="337,632.9531,337,646.9531,349,646.9531,349,638.9531,343,632.9531,337,632.9531" style="stroke: #000000; stroke-width: 1.5;"/><line style="stroke: #000000; stroke-width: 1.5;" x1="343" x2="343" y1="632.9531" y2="638.9531"/><line style="stroke: #000000; stroke-width: 1.5;" x1="349" x2="343" y1="638.9531" y2="638.9531"/><text fill="#000000" font-family="sans-serif" font-size="14" lengthAdjust="spacingAndGlyphs" textLength="302" x="32" y="653.9482">pEp Engine Remailer client code{.dll, .so} A</text><!--MD5=[ee3c864a60fa119a84fe72a5ac8d8617]
entity peA--><rect fill="#FEFECE" filter="url(#f1e69id0rhml3t)" height="39.2969" style="stroke: #000000; stroke-width: 1.5;" width="186" x="115" y="373.9531"/><polygon fill="#FEFECE" points="284,378.9531,284,392.9531,296,392.9531,296,384.9531,290,378.9531,284,378.9531" style="stroke: #000000; stroke-width: 1.5;"/><line style="stroke: #000000; stroke-width: 1.5;" x1="290" x2="290" y1="378.9531" y2="384.9531"/><line style="stroke: #000000; stroke-width: 1.5;" x1="296" x2="290" y1="384.9531" y2="384.9531"/><text fill="#000000" font-family="sans-serif" font-size="14" lengthAdjust="spacingAndGlyphs" textLength="156" x="125" y="399.9482">libpEpEngine{.dll, .so}</text><!--MD5=[2f48b724894870302bced7decca1c49d]
entity pA--><rect fill="#FEFECE" filter="url(#f1e69id0rhml3t)" height="36.2969" style="stroke: #A80036; stroke-width: 1.5;" width="126" x="479" y="375.4531"/><rect fill="#FEFECE" height="5" style="stroke: #A80036; stroke-width: 1.5;" width="10" x="474" y="380.4531"/><rect fill="#FEFECE" height="5" style="stroke: #A80036; stroke-width: 1.5;" width="10" x="474" y="401.75"/><text fill="#000000" font-family="sans-serif" font-size="14" lengthAdjust="spacingAndGlyphs" textLength="106" x="489" y="398.4482">Postfix daemon</text><!--MD5=[c6764c4f3c09cd78bb5227eb65824c91]
entity prN1--><rect fill="#FEFECE" filter="url(#f1e69id0rhml3t)" height="39.2969" style="stroke: #000000; stroke-width: 1.5;" width="117" x="436.5" y="907.4531"/><polygon fill="#FEFECE" points="536.5,912.4531,536.5,926.4531,548.5,926.4531,548.5,918.4531,542.5,912.4531,536.5,912.4531" style="stroke: #000000; stroke-width: 1.5;"/><line style="stroke: #000000; stroke-width: 1.5;" x1="542.5" x2="542.5" y1="912.4531" y2="918.4531"/><line style="stroke: #000000; stroke-width: 1.5;" x1="548.5" x2="542.5" y1="918.4531" y2="918.4531"/><text fill="#000000" font-family="sans-serif" font-size="14" lengthAdjust="spacingAndGlyphs" textLength="87" x="446.5" y="933.4482">pEpRemailer</text><!--MD5=[e027ce5cb2f2709fedff3e69e8bc6e6e]
entity peN1--><rect fill="#FEFECE" filter="url(#f1e69id0rhml3t)" height="39.2969" style="stroke: #000000; stroke-width: 1.5;" width="141" x="424.5" y="1177.4531"/><polygon fill="#FEFECE" points="548.5,1182.4531,548.5,1196.4531,560.5,1196.4531,560.5,1188.4531,554.5,1182.4531,548.5,1182.4531" style="stroke: #000000; stroke-width: 1.5;"/><line style="stroke: #000000; stroke-width: 1.5;" x1="554.5" x2="554.5" y1="1182.4531" y2="1188.4531"/><line style="stroke: #000000; stroke-width: 1.5;" x1="560.5" x2="554.5" y1="1188.4531" y2="1188.4531"/><text fill="#000000" font-family="sans-serif" font-size="14" lengthAdjust="spacingAndGlyphs" textLength="111" x="434.5" y="1203.4482">libpEpEngine.so</text><!--MD5=[26fd5c5b318e0aaed4d137e0d0d125aa]
entity ppN1--><rect fill="#FEFECE" filter="url(#f1e69id0rhml3t)" height="39.2969" style="stroke: #000000; stroke-width: 1.5;" width="169" x="410.5" y="627.9531"/><polygon fill="#FEFECE" points="562.5,632.9531,562.5,646.9531,574.5,646.9531,574.5,638.9531,568.5,632.9531,562.5,632.9531" style="stroke: #000000; stroke-width: 1.5;"/><line style="stroke: #000000; stroke-width: 1.5;" x1="568.5" x2="568.5" y1="632.9531" y2="638.9531"/><line style="stroke: #000000; stroke-width: 1.5;" x1="574.5" x2="568.5" y1="638.9531" y2="638.9531"/><text fill="#000000" font-family="sans-serif" font-size="14" lengthAdjust="spacingAndGlyphs" textLength="139" x="420.5" y="653.9482">Postfix pipe process</text><!--MD5=[6cbaf2c2b20cd7fa377945874b24e705]
entity prN2--><rect fill="#FEFECE" filter="url(#f1e69id0rhml3t)" height="39.2969" style="stroke: #000000; stroke-width: 1.5;" width="117" x="716.5" y="1177.4531"/><polygon fill="#FEFECE" points="816.5,1182.4531,816.5,1196.4531,828.5,1196.4531,828.5,1188.4531,822.5,1182.4531,816.5,1182.4531" style="stroke: #000000; stroke-width: 1.5;"/><line style="stroke: #000000; stroke-width: 1.5;" x1="822.5" x2="822.5" y1="1182.4531" y2="1188.4531"/><line style="stroke: #000000; stroke-width: 1.5;" x1="828.5" x2="822.5" y1="1188.4531" y2="1188.4531"/><text fill="#000000" font-family="sans-serif" font-size="14" lengthAdjust="spacingAndGlyphs" textLength="87" x="726.5" y="1203.4482">pEpRemailer</text><!--MD5=[708abb5a1e6a5f8075dddffd21fe27a9]
entity peN2--><rect fill="#FEFECE" filter="url(#f1e69id0rhml3t)" height="39.2969" style="stroke: #000000; stroke-width: 1.5;" width="141" x="704.5" y="1423.4531"/><polygon fill="#FEFECE" points="828.5,1428.4531,828.5,1442.4531,840.5,1442.4531,840.5,1434.4531,834.5,1428.4531,828.5,1428.4531" style="stroke: #000000; stroke-width: 1.5;"/><line style="stroke: #000000; stroke-width: 1.5;" x1="834.5" x2="834.5" y1="1428.4531" y2="1434.4531"/><line style="stroke: #000000; stroke-width: 1.5;" x1="840.5" x2="834.5" y1="1434.4531" y2="1434.4531"/><text fill="#000000" font-family="sans-serif" font-size="14" lengthAdjust="spacingAndGlyphs" textLength="111" x="714.5" y="1449.4482">libpEpEngine.so</text><!--MD5=[0f9e21e0f3ff4c52fe22fb528607de36]
entity ppN2--><rect fill="#FEFECE" filter="url(#f1e69id0rhml3t)" height="39.2969" style="stroke: #000000; stroke-width: 1.5;" width="169" x="690.5" y="907.4531"/><polygon fill="#FEFECE" points="842.5,912.4531,842.5,926.4531,854.5,926.4531,854.5,918.4531,848.5,912.4531,842.5,912.4531" style="stroke: #000000; stroke-width: 1.5;"/><line style="stroke: #000000; stroke-width: 1.5;" x1="848.5" x2="848.5" y1="912.4531" y2="918.4531"/><line style="stroke: #000000; stroke-width: 1.5;" x1="854.5" x2="848.5" y1="918.4531" y2="918.4531"/><text fill="#000000" font-family="sans-serif" font-size="14" lengthAdjust="spacingAndGlyphs" textLength="139" x="700.5" y="933.4482">Postfix pipe process</text><!--MD5=[110c58fe7c528da2b21cba337a515e27]
entity prN3--><rect fill="#FEFECE" filter="url(#f1e69id0rhml3t)" height="39.2969" style="stroke: #000000; stroke-width: 1.5;" width="117" x="995.5" y="1423.4531"/><polygon fill="#FEFECE" points="1095.5,1428.4531,1095.5,1442.4531,1107.5,1442.4531,1107.5,1434.4531,1101.5,1428.4531,1095.5,1428.4531" style="stroke: #000000; stroke-width: 1.5;"/><line style="stroke: #000000; stroke-width: 1.5;" x1="1101.5" x2="1101.5" y1="1428.4531" y2="1434.4531"/><line style="stroke: #000000; stroke-width: 1.5;" x1="1107.5" x2="1101.5" y1="1434.4531" y2="1434.4531"/><text fill="#000000" font-family="sans-serif" font-size="14" lengthAdjust="spacingAndGlyphs" textLength="87" x="1005.5" y="1449.4482">pEpRemailer</text><!--MD5=[46972855a68bf331da02148e2587f30c]
entity peN3--><rect fill="#FEFECE" filter="url(#f1e69id0rhml3t)" height="39.2969" style="stroke: #000000; stroke-width: 1.5;" width="141" x="983.5" y="1668.9531"/><polygon fill="#FEFECE" points="1107.5,1673.9531,1107.5,1687.9531,1119.5,1687.9531,1119.5,1679.9531,1113.5,1673.9531,1107.5,1673.9531" style="stroke: #000000; stroke-width: 1.5;"/><line style="stroke: #000000; stroke-width: 1.5;" x1="1113.5" x2="1113.5" y1="1673.9531" y2="1679.9531"/><line style="stroke: #000000; stroke-width: 1.5;" x1="1119.5" x2="1113.5" y1="1679.9531" y2="1679.9531"/><text fill="#000000" font-family="sans-serif" font-size="14" lengthAdjust="spacingAndGlyphs" textLength="111" x="993.5" y="1694.9482">libpEpEngine.so</text><!--MD5=[3e46adceea656c74748027dd828c3594]
entity ppN3--><rect fill="#FEFECE" filter="url(#f1e69id0rhml3t)" height="39.2969" style="stroke: #000000; stroke-width: 1.5;" width="169" x="969.5" y="1177.4531"/><polygon fill="#FEFECE" points="1121.5,1182.4531,1121.5,1196.4531,1133.5,1196.4531,1133.5,1188.4531,1127.5,1182.4531,1121.5,1182.4531" style="stroke: #000000; stroke-width: 1.5;"/><line style="stroke: #000000; stroke-width: 1.5;" x1="1127.5" x2="1127.5" y1="1182.4531" y2="1188.4531"/><line style="stroke: #000000; stroke-width: 1.5;" x1="1133.5" x2="1127.5" y1="1188.4531" y2="1188.4531"/><text fill="#000000" font-family="sans-serif" font-size="14" lengthAdjust="spacingAndGlyphs" textLength="139" x="979.5" y="1203.4482">Postfix pipe process</text><!--MD5=[b2d39259b6aeabc16b394deeb0238426]
entity B--><polygon fill="#FFFFFF" filter="url(#f1e69id0rhml3t)" points="1228,1429.9531,1238,1419.9531,1362,1419.9531,1362,1456.25,1352,1466.25,1228,1466.25,1228,1429.9531" style="stroke: #000000; stroke-width: 1.5;"/><line style="stroke: #000000; stroke-width: 1.5;" x1="1352" x2="1361" y1="1429.9531" y2="1420.9531"/><line style="stroke: #000000; stroke-width: 1.5;" x1="1228" x2="1352" y1="1429.9531" y2="1429.9531"/><line style="stroke: #000000; stroke-width: 1.5;" x1="1352" x2="1352" y1="1429.9531" y2="1466.25"/><text fill="#000000" font-family="sans-serif" font-size="14" lengthAdjust="spacingAndGlyphs" textLength="94" x="1243" y="1452.9482">gmail.com (B)</text><!--MD5=[92e1b8d0a4b2a37ccd7fcd96c5dfe02c]
entity TB--><rect fill="#FEFECE" filter="url(#f1e69id0rhml3t)" height="39.2969" style="stroke: #000000; stroke-width: 1.5;" width="115" x="1239.5" y="1668.9531"/><polygon fill="#FEFECE" points="1337.5,1673.9531,1337.5,1687.9531,1349.5,1687.9531,1349.5,1679.9531,1343.5,1673.9531,1337.5,1673.9531" style="stroke: #000000; stroke-width: 1.5;"/><line style="stroke: #000000; stroke-width: 1.5;" x1="1343.5" x2="1343.5" y1="1673.9531" y2="1679.9531"/><line style="stroke: #000000; stroke-width: 1.5;" x1="1349.5" x2="1343.5" y1="1679.9531" y2="1679.9531"/><text fill="#000000" font-family="sans-serif" font-size="14" lengthAdjust="spacingAndGlyphs" textLength="85" x="1249.5" y="1694.9482">Thunderbird</text><!--MD5=[089ef873e28589d284921e2ad74a38bf]
entity peB--><rect fill="#FEFECE" filter="url(#f1e69id0rhml3t)" height="39.2969" style="stroke: #000000; stroke-width: 1.5;" width="141" x="1226.5" y="1830.9531"/><polygon fill="#FEFECE" points="1350.5,1835.9531,1350.5,1849.9531,1362.5,1849.9531,1362.5,1841.9531,1356.5,1835.9531,1350.5,1835.9531" style="stroke: #000000; stroke-width: 1.5;"/><line style="stroke: #000000; stroke-width: 1.5;" x1="1356.5" x2="1356.5" y1="1835.9531" y2="1841.9531"/><line style="stroke: #000000; stroke-width: 1.5;" x1="1362.5" x2="1356.5" y1="1841.9531" y2="1841.9531"/><text fill="#000000" font-family="sans-serif" font-size="14" lengthAdjust="spacingAndGlyphs" textLength="111" x="1236.5" y="1856.9482">libpEpEngine.so</text><!--MD5=[c72e14692f063a08d1023b5b76acc947]
entity M--><rect fill="#FEFECE" filter="url(#f1e69id0rhml3t)" height="39.2969" style="stroke: #000000; stroke-width: 1.5;" width="42" x="1403" y="1830.9531"/><polygon fill="#FEFECE" points="1428,1835.9531,1428,1849.9531,1440,1849.9531,1440,1841.9531,1434,1835.9531,1428,1835.9531" style="stroke: #000000; stroke-width: 1.5;"/><line style="stroke: #000000; stroke-width: 1.5;" x1="1434" x2="1434" y1="1835.9531" y2="1841.9531"/><line style="stroke: #000000; stroke-width: 1.5;" x1="1440" x2="1434" y1="1841.9531" y2="1841.9531"/><text fill="#000000" font-family="sans-serif" font-size="14" lengthAdjust="spacingAndGlyphs" textLength="12" x="1413" y="1856.9482">M</text><!--MD5=[703ea5a149c5871c74522bf38bdfe548]
entity data--><polygon fill="#FEFECE" filter="url(#f1e69id0rhml3t)" points="1443.5,908.9531,1443.5,945.25,1736.5,945.25,1736.5,918.9531,1726.5,908.9531,1443.5,908.9531" style="stroke: #000000; stroke-width: 1.5;"/><path d="M1726.5,908.9531 L1726.5,918.9531 L1736.5,918.9531 " fill="#FEFECE" style="stroke: #000000; stroke-width: 1.5;"/><text fill="#000000" font-family="sans-serif" font-size="14" lengthAdjust="spacingAndGlyphs" textLength="273" x="1453.5" y="931.9482">Data that is being transmited encrypted</text><path d="M1771.5,914.4531 L1771.5,922.9531 L1736.7861,926.9531 L1771.5,930.9531 L1771.5,939.5859 A0,0 0 0 0 1771.5,939.5859 L1994.5,939.5859 A0,0 0 0 0 1994.5,939.5859 L1994.5,924.4531 L1984.5,914.4531 L1771.5,914.4531 A0,0 0 0 0 1771.5,914.4531 " fill="#FBFB77" filter="url(#f1e69id0rhml3t)" style="stroke: #A80036; stroke-width: 1.0;"/><path d="M1984.5,914.4531 L1984.5,924.4531 L1994.5,924.4531 L1984.5,914.4531 " fill="#FBFB77" style="stroke: #A80036; stroke-width: 1.0;"/><text fill="#000000" font-family="sans-serif" font-size="13" lengthAdjust="spacingAndGlyphs" textLength="202" x="1777.5" y="931.52">data that is transmitted in clear</text><!--MD5=[82938215ffa17339289e6d1ab32e6364]
entity Z--><ellipse cx="1590" cy="1196.9531" fill="#FEFECE" filter="url(#f1e69id0rhml3t)" rx="8" ry="8" style="stroke: #A80036; stroke-width: 2.0;"/><text fill="#000000" font-family="sans-serif" font-size="14" lengthAdjust="spacingAndGlyphs" textLength="10" x="1585" y="1226.9482">Z</text><!--MD5=[d5781f957670809f73f78a44cceb4131]
entity X--><ellipse cx="1582" cy="142.4531" fill="#FEFECE" filter="url(#f1e69id0rhml3t)" rx="8" ry="8" style="stroke: #A80036; stroke-width: 2.0;"/><text fill="#000000" font-family="sans-serif" font-size="14" lengthAdjust="spacingAndGlyphs" textLength="9" x="1577.5" y="172.4482">X</text><!--MD5=[36d09f02135c818e77ea4d3594352c2a]
entity Y--><ellipse cx="1590" cy="647.4531" fill="#FEFECE" filter="url(#f1e69id0rhml3t)" rx="8" ry="8" style="stroke: #A80036; stroke-width: 2.0;"/><text fill="#000000" font-family="sans-serif" font-size="14" lengthAdjust="spacingAndGlyphs" textLength="9" x="1585.5" y="677.4482">Y</text><!--MD5=[391e262802373aeb20a0c80efbb58e11]
entity Binary, library or process--><rect fill="#FEFECE" filter="url(#f1e69id0rhml3t)" height="39.2969" style="stroke: #000000; stroke-width: 1.5;" width="198" x="1644" y="122.9531"/><polygon fill="#FEFECE" points="1825,127.9531,1825,141.9531,1837,141.9531,1837,133.9531,1831,127.9531,1825,127.9531" style="stroke: #000000; stroke-width: 1.5;"/><line style="stroke: #000000; stroke-width: 1.5;" x1="1831" x2="1831" y1="127.9531" y2="133.9531"/><line style="stroke: #000000; stroke-width: 1.5;" x1="1837" x2="1831" y1="133.9531" y2="133.9531"/><text fill="#000000" font-family="sans-serif" font-size="14" lengthAdjust="spacingAndGlyphs" textLength="168" x="1654" y="148.9482">Binary, library or process</text><!--MD5=[98e1022820387e41ed948aad0d0e2ebd]
entity M3--><polygon fill="#FEFECE" filter="url(#f1e69id0rhml3t)" points="372,250.4531,372,286.75,688,286.75,688,260.4531,678,250.4531,372,250.4531" style="stroke: #000000; stroke-width: 1.5;"/><path d="M678,250.4531 L678,260.4531 L688,260.4531 " fill="#FEFECE" style="stroke: #000000; stroke-width: 1.5;"/><text fill="#000000" font-family="sans-serif" font-size="14" lengthAdjust="spacingAndGlyphs" textLength="296" x="382" y="273.4482">M3 = E(N1pk, E(N2pk, E(N3pk, E(Bpk, M))))</text><path d="M722.5,248.4531 L722.5,264.4531 L688.0273,268.4531 L722.5,272.4531 L722.5,288.7188 A0,0 0 0 0 722.5,288.7188 L917.5,288.7188 A0,0 0 0 0 917.5,288.7188 L917.5,258.4531 L907.5,248.4531 L722.5,248.4531 A0,0 0 0 0 722.5,248.4531 " fill="#FBFB77" filter="url(#f1e69id0rhml3t)" style="stroke: #A80036; stroke-width: 1.0;"/><path d="M907.5,248.4531 L907.5,258.4531 L917.5,258.4531 L907.5,248.4531 " fill="#FBFB77" style="stroke: #A80036; stroke-width: 1.0;"/><text fill="#000000" font-family="sans-serif" font-size="13" lengthAdjust="spacingAndGlyphs" textLength="174" x="728.5" y="265.52">From: ada@pep.foundation</text><text fill="#000000" font-family="sans-serif" font-size="13" lengthAdjust="spacingAndGlyphs" textLength="167" x="728.5" y="280.6528">To: remailer@systemli.org</text><!--MD5=[3e8d45a72a862f07a2e383e5806cfaed]
entity M3bis--><rect fill="#FEFECE" filter="url(#f1e69id0rhml3t)" height="39.2969" style="stroke: #000000; stroke-width: 1.5;" width="326" x="411" y="490.4531"/><polygon fill="#FEFECE" points="720,495.4531,720,509.4531,732,509.4531,732,501.4531,726,495.4531,720,495.4531" style="stroke: #000000; stroke-width: 1.5;"/><line style="stroke: #000000; stroke-width: 1.5;" x1="726" x2="726" y1="495.4531" y2="501.4531"/><line style="stroke: #000000; stroke-width: 1.5;" x1="732" x2="726" y1="501.4531" y2="501.4531"/><text fill="#000000" font-family="sans-serif" font-size="14" lengthAdjust="spacingAndGlyphs" textLength="296" x="421" y="516.4482">M3 = E(N1pk, E(N2pk, E(N3pk, E(Bpk, M))))</text><path d="M772.5,489.9531 L772.5,505.9531 L737.0313,509.9531 L772.5,513.9531 L772.5,530.2188 A0,0 0 0 0 772.5,530.2188 L967.5,530.2188 A0,0 0 0 0 967.5,530.2188 L967.5,499.9531 L957.5,489.9531 L772.5,489.9531 A0,0 0 0 0 772.5,489.9531 " fill="#FBFB77" filter="url(#f1e69id0rhml3t)" style="stroke: #A80036; stroke-width: 1.0;"/><path d="M957.5,489.9531 L957.5,499.9531 L967.5,499.9531 L957.5,489.9531 " fill="#FBFB77" style="stroke: #A80036; stroke-width: 1.0;"/><text fill="#000000" font-family="sans-serif" font-size="13" lengthAdjust="spacingAndGlyphs" textLength="174" x="778.5" y="507.02">From: ada@pep.foundation</text><text fill="#000000" font-family="sans-serif" font-size="13" lengthAdjust="spacingAndGlyphs" textLength="167" x="778.5" y="522.1528">To: remailer@systemli.org</text><!--MD5=[337636605fd75d21901d5b457bca3a06]
entity M2--><rect fill="#FEFECE" filter="url(#f1e69id0rhml3t)" height="39.2969" style="stroke: #000000; stroke-width: 1.5;" width="263" x="704.5" y="753.9531"/><polygon fill="#FEFECE" points="950.5,758.9531,950.5,772.9531,962.5,772.9531,962.5,764.9531,956.5,758.9531,950.5,758.9531" style="stroke: #000000; stroke-width: 1.5;"/><line style="stroke: #000000; stroke-width: 1.5;" x1="956.5" x2="956.5" y1="758.9531" y2="764.9531"/><line style="stroke: #000000; stroke-width: 1.5;" x1="962.5" x2="956.5" y1="764.9531" y2="764.9531"/><text fill="#000000" font-family="sans-serif" font-size="14" lengthAdjust="spacingAndGlyphs" textLength="233" x="714.5" y="779.9482">M2 = E(N2pk, E(N3pk, E(Bpk, M)))</text><path d="M1002.5,753.4531 L1002.5,769.4531 L967.7422,773.4531 L1002.5,777.4531 L1002.5,793.7188 A0,0 0 0 0 1002.5,793.7188 L1197.5,793.7188 A0,0 0 0 0 1197.5,793.7188 L1197.5,763.4531 L1187.5,753.4531 L1002.5,753.4531 A0,0 0 0 0 1002.5,753.4531 " fill="#FBFB77" filter="url(#f1e69id0rhml3t)" style="stroke: #A80036; stroke-width: 1.0;"/><path d="M1187.5,753.4531 L1187.5,763.4531 L1197.5,763.4531 L1187.5,753.4531 " fill="#FBFB77" style="stroke: #A80036; stroke-width: 1.0;"/><text fill="#000000" font-family="sans-serif" font-size="13" lengthAdjust="spacingAndGlyphs" textLength="174" x="1008.5" y="770.52">From: ada@pep.foundation</text><text fill="#000000" font-family="sans-serif" font-size="13" lengthAdjust="spacingAndGlyphs" textLength="153" x="1008.5" y="785.6528">To: remailer@riseup.net</text><!--MD5=[9d3ca2edc78b2fd8c3bd75c02986111b]
entity M1--><rect fill="#FEFECE" filter="url(#f1e69id0rhml3t)" height="39.2969" style="stroke: #000000; stroke-width: 1.5;" width="205" x="992.5" y="1023.9531"/><polygon fill="#FEFECE" points="1180.5,1028.9531,1180.5,1042.9531,1192.5,1042.9531,1192.5,1034.9531,1186.5,1028.9531,1180.5,1028.9531" style="stroke: #000000; stroke-width: 1.5;"/><line style="stroke: #000000; stroke-width: 1.5;" x1="1186.5" x2="1186.5" y1="1028.9531" y2="1034.9531"/><line style="stroke: #000000; stroke-width: 1.5;" x1="1192.5" x2="1186.5" y1="1034.9531" y2="1034.9531"/><text fill="#000000" font-family="sans-serif" font-size="14" lengthAdjust="spacingAndGlyphs" textLength="175" x="1002.5" y="1049.9482">M1 = E(N3pk, E(Bpk, M)))</text><path d="M1232.5,1023.4531 L1232.5,1039.4531 L1197.8125,1043.4531 L1232.5,1047.4531 L1232.5,1063.7188 A0,0 0 0 0 1232.5,1063.7188 L1427.5,1063.7188 A0,0 0 0 0 1427.5,1063.7188 L1427.5,1033.4531 L1417.5,1023.4531 L1232.5,1023.4531 A0,0 0 0 0 1232.5,1023.4531 " fill="#FBFB77" filter="url(#f1e69id0rhml3t)" style="stroke: #A80036; stroke-width: 1.0;"/><path d="M1417.5,1023.4531 L1417.5,1033.4531 L1427.5,1033.4531 L1417.5,1023.4531 " fill="#FBFB77" style="stroke: #A80036; stroke-width: 1.0;"/><text fill="#000000" font-family="sans-serif" font-size="13" lengthAdjust="spacingAndGlyphs" textLength="174" x="1238.5" y="1040.52">From: ada@pep.foundation</text><text fill="#000000" font-family="sans-serif" font-size="13" lengthAdjust="spacingAndGlyphs" textLength="161" x="1238.5" y="1055.6528">To: remailer@wauland.de</text><!--MD5=[67df44c990e994ab2eaf81489c255ee0]
entity M0--><rect fill="#FEFECE" filter="url(#f1e69id0rhml3t)" height="39.2969" style="stroke: #000000; stroke-width: 1.5;" width="138" x="1223" y="1303.4531"/><polygon fill="#FEFECE" points="1344,1308.4531,1344,1322.4531,1356,1322.4531,1356,1314.4531,1350,1308.4531,1344,1308.4531" style="stroke: #000000; stroke-width: 1.5;"/><line style="stroke: #000000; stroke-width: 1.5;" x1="1350" x2="1350" y1="1308.4531" y2="1314.4531"/><line style="stroke: #000000; stroke-width: 1.5;" x1="1356" x2="1350" y1="1314.4531" y2="1314.4531"/><text fill="#000000" font-family="sans-serif" font-size="14" lengthAdjust="spacingAndGlyphs" textLength="108" x="1233" y="1329.4482">M = E(Bpk, M)))</text><path d="M1396.5,1302.9531 L1396.5,1318.9531 L1361.043,1322.9531 L1396.5,1326.9531 L1396.5,1343.2188 A0,0 0 0 0 1396.5,1343.2188 L1591.5,1343.2188 A0,0 0 0 0 1591.5,1343.2188 L1591.5,1312.9531 L1581.5,1302.9531 L1396.5,1302.9531 A0,0 0 0 0 1396.5,1302.9531 " fill="#FBFB77" filter="url(#f1e69id0rhml3t)" style="stroke: #A80036; stroke-width: 1.0;"/><path d="M1581.5,1302.9531 L1581.5,1312.9531 L1591.5,1312.9531 L1581.5,1302.9531 " fill="#FBFB77" style="stroke: #A80036; stroke-width: 1.0;"/><text fill="#000000" font-family="sans-serif" font-size="13" lengthAdjust="spacingAndGlyphs" textLength="174" x="1402.5" y="1320.02">From: ada@pep.foundation</text><text fill="#000000" font-family="sans-serif" font-size="13" lengthAdjust="spacingAndGlyphs" textLength="136" x="1402.5" y="1335.1528">To: betty@gmail.com</text><!--MD5=[22026f4dcab0eb9d2a828c2d1bf38901]
entity M01--><rect fill="#FEFECE" filter="url(#f1e69id0rhml3t)" height="39.2969" style="stroke: #000000; stroke-width: 1.5;" width="138" x="1227" y="1542.9531"/><polygon fill="#FEFECE" points="1348,1547.9531,1348,1561.9531,1360,1561.9531,1360,1553.9531,1354,1547.9531,1348,1547.9531" style="stroke: #000000; stroke-width: 1.5;"/><line style="stroke: #000000; stroke-width: 1.5;" x1="1354" x2="1354" y1="1547.9531" y2="1553.9531"/><line style="stroke: #000000; stroke-width: 1.5;" x1="1360" x2="1354" y1="1553.9531" y2="1553.9531"/><text fill="#000000" font-family="sans-serif" font-size="14" lengthAdjust="spacingAndGlyphs" textLength="108" x="1237" y="1568.9482">M = E(Bpk, M)))</text><!--MD5=[4c53ff48193cc86b596fceee7bad283c]
link app to peA--><path d="M241.3293,167.3545 C234.2292,215.5199 218.6935,320.9109 211.6277,368.8438 " fill="none" id="app-peA" style="stroke: #A80036; stroke-width: 1.0; stroke-dasharray: 7.0,7.0;"/><polygon fill="#A80036" points="210.8898,373.849,216.1595,365.5285,211.6189,368.9025,208.245,364.3619,210.8898,373.849" style="stroke: #A80036; stroke-width: 1.0;"/><polygon fill="#A80036" points="242.0967,162.1486,236.827,170.4691,241.3676,167.0952,244.7415,171.6357,242.0967,162.1486" style="stroke: #A80036; stroke-width: 1.0;"/><!--MD5=[bb92ee641a2e5566b37bea4284e3a687]
link peA to perA--><path d="M206.0504,418.2132 C202.2217,466.8379 193.7612,574.2856 189.9402,622.8132 " fill="none" id="peA-perA" style="stroke: #A80036; stroke-width: 1.0; stroke-dasharray: 7.0,7.0;"/><polygon fill="#A80036" points="189.5414,627.8774,194.2357,619.2193,189.934,622.8929,186.2604,618.5912,189.5414,627.8774" style="stroke: #A80036; stroke-width: 1.0;"/><polygon fill="#A80036" points="206.4638,412.9623,201.7695,421.6205,206.0712,417.9469,209.7448,422.2486,206.4638,412.9623" style="stroke: #A80036; stroke-width: 1.0;"/><!--MD5=[1f3c53c3639e7a0646c4db5101f4a7e5]
link app to M3--><path d="M289.2185,162.0024 C342.1861,185.4196 430.4756,224.4528 484.1544,248.1845 " fill="none" id="app-&gt;M3" style="stroke: #A80036; stroke-width: 1.0;"/><polygon fill="#A80036" points="488.9181,250.2906,482.304,242.9931,484.3451,248.2689,479.0693,250.3099,488.9181,250.2906" style="stroke: #A80036; stroke-width: 1.0;"/><text fill="#000000" font-family="sans-serif" font-size="13" lengthAdjust="spacingAndGlyphs" textLength="35" x="414" y="214.52">SMTP</text><!--MD5=[5759c296c69c82e9b037127d30ee6524]
link M3 to pA--><path d="M531.7449,286.6292 C533.8601,308.662 537.4287,345.8356 539.7491,370.0063 " fill="none" id="M3-&gt;pA" style="stroke: #A80036; stroke-width: 1.0;"/><polygon fill="#A80036" points="540.253,375.2551,543.3746,365.914,539.7751,370.278,535.4112,366.6786,540.253,375.2551" style="stroke: #A80036; stroke-width: 1.0;"/><text fill="#000000" font-family="sans-serif" font-size="13" lengthAdjust="spacingAndGlyphs" textLength="35" x="537" y="331.52">SMTP</text><!--MD5=[d9eaf54ab810851bfd44a9ee30f2b820]
link pA to M3bis--><path d="M547,411.6562 C552.4583,431.5278 561.2269,463.451 567.2829,485.4987 " fill="none" id="pA-&gt;M3bis" style="stroke: #A80036; stroke-width: 1.0;"/><polygon fill="#A80036" points="568.6078,490.3222,570.081,480.5842,567.2834,485.5008,562.3667,482.7032,568.6078,490.3222" style="stroke: #A80036; stroke-width: 1.0;"/><text fill="#000000" font-family="sans-serif" font-size="13" lengthAdjust="spacingAndGlyphs" textLength="35" x="560" y="456.02">SMTP</text><!--MD5=[e968611739cb65ae3327a792de617cb3]
link M3bis to pN1--><path d="M582.5063,529.6334 C587.2006,540.9839 592.8932,555.6086 597,568.9531 C599.4676,576.9713 601.7673,585.5431 603.8422,593.9685 C604.361,596.0749 604.8657,598.1721 605.3554,600.2492 C605.386,600.3791 605.4166,600.5088 605.4471,600.6385 " fill="none" id="M3bis-&gt;pN1" style="stroke: #A80036; stroke-width: 1.0;"/><polygon fill="#A80036" points="605.4471,600.6385,607.2805,590.9618,604.3024,595.7712,599.493,592.7932,605.4471,600.6385" style="stroke: #A80036; stroke-width: 1.0;"/><!--MD5=[ccb434bb00426d4360b978f9ff951888]
link ppN1 to prN1--><path d="M495,672.1656 C495,725.1226 495,849.0348 495,902.1091 " fill="none" id="ppN1-prN1" style="stroke: #A80036; stroke-width: 1.0; stroke-dasharray: 7.0,7.0;"/><polygon fill="#A80036" points="495,907.3209,499,898.3209,495,902.3209,491,898.3209,495,907.3209" style="stroke: #A80036; stroke-width: 1.0;"/><polygon fill="#A80036" points="495,667.107,491,676.107,495,672.107,499,676.107,495,667.107" style="stroke: #A80036; stroke-width: 1.0;"/><!--MD5=[f51f917264ceb973a2858b95b5afa433]
link prN1 to peN1--><path d="M495,952.054 C495,1003.6886 495,1121.2419 495,1172.4035 " fill="none" id="prN1-peN1" style="stroke: #A80036; stroke-width: 1.0; stroke-dasharray: 7.0,7.0;"/><polygon fill="#A80036" points="495,1177.4344,499,1168.4344,495,1172.4344,491,1168.4344,495,1177.4344" style="stroke: #A80036; stroke-width: 1.0;"/><polygon fill="#A80036" points="495,946.8068,491,955.8068,495,951.8068,499,955.8068,495,946.8068" style="stroke: #A80036; stroke-width: 1.0;"/><!--MD5=[1b24ef2d3212769f3dba8f37c07a8859]
link pN1 to M2--><path d="M623.2457,652.1543 C623.3699,652.2251 623.4953,652.2966 623.622,652.3689 C627.6763,654.6803 633.0232,657.7288 639.3655,661.3448 C652.0503,668.5768 668.7173,678.0793 686.9901,688.4972 C723.5356,709.3331 766.5044,733.8312 796.8857,751.1526 " fill="none" id="pN1-&gt;M2" style="stroke: #A80036; stroke-width: 1.0;"/><polygon fill="#A80036" points="801.5294,753.8002,795.6921,745.8676,797.1858,751.3237,791.7297,752.8174,801.5294,753.8002" style="stroke: #A80036; stroke-width: 1.0;"/><text fill="#000000" font-family="sans-serif" font-size="13" lengthAdjust="spacingAndGlyphs" textLength="35" x="746" y="719.52">SMTP</text><!--MD5=[673970bc00a96b24583134c92b016c4b]
link M2 to pN2--><path d="M848.7007,793.1055 C857.7241,807.8319 869.5209,828.7531 877,848.4531 C879.9776,856.2962 882.5483,864.775 884.7391,873.1606 C885.2868,875.257 885.8108,877.3476 886.3115,879.421 C886.374,879.6802 886.4363,879.9391 886.4981,880.1977 " fill="none" id="M2-&gt;pN2" style="stroke: #A80036; stroke-width: 1.0;"/><polygon fill="#A80036" points="886.4981,880.1977,888.2948,870.5141,885.335,875.3349,880.5143,872.3751,886.4981,880.1977" style="stroke: #A80036; stroke-width: 1.0;"/><text fill="#000000" font-family="sans-serif" font-size="13" lengthAdjust="spacingAndGlyphs" textLength="35" x="874" y="836.52">SMTP</text><!--MD5=[0bbdcdcb930b32981397f7d9d1519472]
link ppN2 to prN2--><path d="M775,952.054 C775,1003.6886 775,1121.2419 775,1172.4035 " fill="none" id="ppN2-prN2" style="stroke: #A80036; stroke-width: 1.0; stroke-dasharray: 7.0,7.0;"/><polygon fill="#A80036" points="775,1177.4344,779,1168.4344,775,1172.4344,771,1168.4344,775,1177.4344" style="stroke: #A80036; stroke-width: 1.0;"/><polygon fill="#A80036" points="775,946.8068,771,955.8068,775,951.8068,779,955.8068,775,946.8068" style="stroke: #A80036; stroke-width: 1.0;"/><!--MD5=[1827b104227b1f471d221c0b55b9165a]
link prN2 to peN2--><path d="M775,1221.7735 C775,1268.8647 775,1370.6831 775,1417.9306 " fill="none" id="prN2-peN2" style="stroke: #A80036; stroke-width: 1.0; stroke-dasharray: 7.0,7.0;"/><polygon fill="#A80036" points="775,1423.1438,779,1414.1438,775,1418.1438,771,1414.1438,775,1423.1438" style="stroke: #A80036; stroke-width: 1.0;"/><polygon fill="#A80036" points="775,1216.6685,771,1225.6685,775,1221.6685,779,1225.6685,775,1216.6685" style="stroke: #A80036; stroke-width: 1.0;"/><!--MD5=[09081a505997aa4d70ad95232174cdc2]
link pN2 to M1--><path d="M903.2896,931.7818 C903.521,931.9166 903.7569,932.054 903.997,932.1939 C904.4773,932.4737 904.9748,932.7635 905.489,933.063 C906.5174,933.662 907.6127,934.3 908.7708,934.9746 C911.087,936.3238 913.6547,937.8195 916.442,939.4431 C927.5911,945.9375 942.254,954.4786 958.3927,963.8794 C990.67,982.6809 1028.8504,1004.9209 1056.63,1021.1025 " fill="none" id="pN2-&gt;M1" style="stroke: #A80036; stroke-width: 1.0;"/><polygon fill="#A80036" points="1061.2141,1023.7728,1055.4507,1015.7864,1056.8937,1021.2561,1051.4239,1022.6991,1061.2141,1023.7728" style="stroke: #A80036; stroke-width: 1.0;"/><text fill="#000000" font-family="sans-serif" font-size="13" lengthAdjust="spacingAndGlyphs" textLength="35" x="1007" y="989.52">SMTP</text><!--MD5=[830f339ba5aea37d6a44d8fd9475d5e8]
link M1 to pN3--><path d="M1115.1652,1062.9936 C1128.662,1077.1786 1145.7662,1097.488 1156,1118.4531 C1159.6801,1125.9922 1162.6239,1134.3094 1164.9744,1142.626 C1165.562,1144.7051 1166.1126,1146.7842 1166.6283,1148.8511 C1166.7572,1149.3678 1166.884,1149.8838 1167.0086,1150.3988 " fill="none" id="M1-&gt;pN3" style="stroke: #A80036; stroke-width: 1.0;"/><polygon fill="#A80036" points="1167.0086,1150.3988,1168.7799,1140.7105,1165.8327,1145.539,1161.0043,1142.5918,1167.0086,1150.3988" style="stroke: #A80036; stroke-width: 1.0;"/><text fill="#000000" font-family="sans-serif" font-size="13" lengthAdjust="spacingAndGlyphs" textLength="35" x="1152" y="1106.52">SMTP</text><!--MD5=[fe218fb643b74fea7db5afb268daf13d]
link ppN3 to prN3--><path d="M1054,1221.7735 C1054,1268.8647 1054,1370.6831 1054,1417.9306 " fill="none" id="ppN3-prN3" style="stroke: #A80036; stroke-width: 1.0; stroke-dasharray: 7.0,7.0;"/><polygon fill="#A80036" points="1054,1423.1438,1058,1414.1438,1054,1418.1438,1050,1414.1438,1054,1423.1438" style="stroke: #A80036; stroke-width: 1.0;"/><polygon fill="#A80036" points="1054,1216.6685,1050,1225.6685,1054,1221.6685,1058,1225.6685,1054,1216.6685" style="stroke: #A80036; stroke-width: 1.0;"/><!--MD5=[8f1adac486233d78c1d5f492ebad1f84]
link prN3 to peN3--><path d="M1054,1467.723 C1054,1514.7186 1054,1616.33 1054,1663.4814 " fill="none" id="prN3-peN3" style="stroke: #A80036; stroke-width: 1.0; stroke-dasharray: 7.0,7.0;"/><polygon fill="#A80036" points="1054,1668.6841,1058,1659.6841,1054,1663.6841,1050,1659.6841,1054,1668.6841" style="stroke: #A80036; stroke-width: 1.0;"/><polygon fill="#A80036" points="1054,1462.6284,1050,1471.6284,1054,1467.6284,1058,1471.6284,1054,1462.6284" style="stroke: #A80036; stroke-width: 1.0;"/><!--MD5=[629fdb4fb0f1b0b3576fc42da0f218b4]
link pN3 to M0--><path d="M1182.222,1205.7325 C1183.6064,1207.2108 1185.141,1208.8495 1186.8067,1210.6281 C1193.4694,1217.7425 1202.2284,1227.0953 1211.8526,1237.372 C1231.101,1257.9254 1253.8104,1282.1744 1270.1322,1299.6027 " fill="none" id="pN3-&gt;M0" style="stroke: #A80036; stroke-width: 1.0;"/><polygon fill="#A80036" points="1273.5949,1303.3002,1270.3623,1293.997,1270.177,1299.6508,1264.5232,1299.4655,1273.5949,1303.3002" style="stroke: #A80036; stroke-width: 1.0;"/><text fill="#000000" font-family="sans-serif" font-size="13" lengthAdjust="spacingAndGlyphs" textLength="35" x="1244" y="1269.02">SMTP</text><!--MD5=[385069dbfd1cb7c4f4d712e36502197e]
link M0 to B--><path d="M1292.4887,1342.5002 C1292.9775,1362.0521 1293.7345,1392.3313 1294.2896,1414.5372 " fill="none" id="M0-&gt;B" style="stroke: #A80036; stroke-width: 1.0;"/><polygon fill="#A80036" points="1294.419,1419.7125,1298.1925,1410.6152,1294.2939,1414.7141,1290.195,1410.8155,1294.419,1419.7125" style="stroke: #A80036; stroke-width: 1.0;"/><text fill="#000000" font-family="sans-serif" font-size="13" lengthAdjust="spacingAndGlyphs" textLength="35" x="1294" y="1386.02">SMTP</text><!--MD5=[ff8b0dc7f252189bfa0ae6eb9e19b3ea]
link B to M01--><path d="M1295.1928,1465.9939 C1295.3644,1486.5018 1295.6149,1516.4298 1295.7912,1537.4986 " fill="none" id="B-&gt;M01" style="stroke: #A80036; stroke-width: 1.0;"/><polygon fill="#A80036" points="1295.8343,1542.6531,1299.7588,1533.62,1295.7924,1537.6533,1291.7591,1533.6869,1295.8343,1542.6531" style="stroke: #A80036; stroke-width: 1.0;"/><text fill="#000000" font-family="sans-serif" font-size="13" lengthAdjust="spacingAndGlyphs" textLength="73" x="1296" y="1509.02">IMAP/MAPI?</text><!--MD5=[fb3da9f5bca65485268eafffb8fed424]
link TB to M--><path d="M1312.3192,1707.9941 C1335.6803,1737.7933 1380.1469,1794.5145 1405.3517,1826.6655 " fill="none" id="TB-&gt;M" style="stroke: #A80036; stroke-width: 1.0; stroke-dasharray: 7.0,7.0;"/><polygon fill="#A80036" points="1408.6265,1830.8428,1406.2218,1821.292,1405.5417,1826.9079,1399.9259,1826.2278,1408.6265,1830.8428" style="stroke: #A80036; stroke-width: 1.0;"/><!--MD5=[48c177f884baf0ec0fe29426efe36d72]
link TB to peB--><path d="M1297,1713.3566 C1297,1743.8972 1297,1795.3447 1297,1825.7798 " fill="none" id="TB-peB" style="stroke: #A80036; stroke-width: 1.0; stroke-dasharray: 7.0,7.0;"/><polygon fill="#A80036" points="1297,1830.8428,1301,1821.8428,1297,1825.8428,1293,1821.8428,1297,1830.8428" style="stroke: #A80036; stroke-width: 1.0;"/><polygon fill="#A80036" points="1297,1707.9941,1293,1716.9941,1297,1712.9941,1301,1716.9941,1297,1707.9941" style="stroke: #A80036; stroke-width: 1.0;"/><!--MD5=[096f519f35a9858b2fa30a081c6c857c]
link M01 to TB--><path d="M1296.1563,1582.1406 C1296.3309,1604.1474 1296.614,1639.8204 1296.8035,1663.6993 " fill="none" id="M01-&gt;TB" style="stroke: #A80036; stroke-width: 1.0;"/><polygon fill="#A80036" points="1296.8448,1668.9038,1300.7732,1659.8723,1296.8051,1663.904,1292.7734,1659.9359,1296.8448,1668.9038" style="stroke: #A80036; stroke-width: 1.0;"/><text fill="#000000" font-family="sans-serif" font-size="13" lengthAdjust="spacingAndGlyphs" textLength="73" x="1297" y="1625.02">IMAP/MAPI?</text><!--MD5=[ddba56da0fa3f7e2613d730fc101d463]
link X to Y--><path d="M1583.4989,156.7363 C1585.8151,180.0785 1590,227.8686 1590,268.4531 C1590,268.4531 1590,268.4531 1590,509.9531 C1590,555.005 1590,608.3601 1590,633.2911 " fill="none" id="X-Y" style="stroke: #A80036; stroke-width: 1.0; stroke-dasharray: 7.0,7.0;"/><polygon fill="#A80036" points="1590,638.444,1594,629.444,1590,633.444,1586,629.444,1590,638.444" style="stroke: #A80036; stroke-width: 1.0;"/><polygon fill="#A80036" points="1582.981,151.61,1579.9061,160.9666,1583.4837,156.5847,1587.8656,160.1623,1582.981,151.61" style="stroke: #A80036; stroke-width: 1.0;"/><text fill="#000000" font-family="sans-serif" font-size="13" lengthAdjust="spacingAndGlyphs" textLength="101" x="1591" y="398.02">calls in memory</text><!--MD5=[3558b0fb43b57265e3a7becd824666a7]
link Y to data--><path d="M1590,656.7526 C1590,695.5678 1590,845.3326 1590,903.5854 " fill="none" id="Y-&gt;data" style="stroke: #A80036; stroke-width: 1.0;"/><polygon fill="#A80036" points="1590,908.9303,1594,899.9303,1590,903.9303,1586,899.9303,1590,908.9303" style="stroke: #A80036; stroke-width: 1.0;"/><text fill="#000000" font-family="sans-serif" font-size="13" lengthAdjust="spacingAndGlyphs" textLength="113" x="1591" y="778.02">network transport</text><!--MD5=[5b68728df3b35a0157563457cad9d434]
link data to Z--><path d="M1590,945.0878 C1590,995.648 1590,1137.4401 1590,1182.8043 " fill="none" id="data-&gt;Z" style="stroke: #A80036; stroke-width: 1.0;"/><polygon fill="#A80036" points="1590,1187.8459,1594,1178.8459,1590,1182.8459,1586,1178.8459,1590,1187.8459" style="stroke: #A80036; stroke-width: 1.0;"/><text fill="#000000" font-family="sans-serif" font-size="13" lengthAdjust="spacingAndGlyphs" textLength="113" x="1591" y="1048.02">network transport</text><rect fill="#DDDDDD" height="42.5938" rx="5" ry="5" style="stroke: #000000; stroke-width: 1.0;" width="511" x="758" y="1903.9531"/><text fill="#000000" font-family="sans-serif" font-size="14" lengthAdjust="spacingAndGlyphs" textLength="499" x="764" y="1921.9482">Case scenario: Ada, from her Android mobile, sends a message to Betty,</text><text fill="#000000" font-family="sans-serif" font-size="14" lengthAdjust="spacingAndGlyphs" textLength="230" x="764" y="1938.2451">who receives on her Linux laptop.</text><!--MD5=[4b625c4fea46a099a6c5c80f6104c419]
@startuml

title "pEp remailer (deploymment diagram)"

node "Ada's mobile (Ada)" as Ada {
    artifact "pEp{.apk, .exe}" as app
    artifact "pEp Engine Remailer client code{.dll, .so} A" as perA
    artifact "libpEpEngine{.dll, .so}" as peA
    app <..> peA
    peA <..> perA
}

file "M3 = E(N1pk, E(N2pk, E(N3pk, E(Bpk, M))))" as M3
note right of M3
    From: ada@pep.foundation
    To: remailer@systemli.org
end note

app - -> M3: SMTP

node "mail.pEp.foundation (A)" {
    component "Postfix daemon" as pA
}
M3 - -> pA : SMTP

artifact "M3 = E(N1pk, E(N2pk, E(N3pk, E(Bpk, M))))" as M3bis
note right of M3bis
    From: ada@pep.foundation
    To: remailer@systemli.org
end note

pA - -> M3bis : SMTP
M3bis - -> pN1


node "mail.systemli.org (Node 1)" as N1 {
 component "Postfix daemon" as pN1 {
  artifact "Postfix pipe process" as ppN1
 }
  artifact "pEpRemailer" as prN1
  artifact "libpEpEngine.so" as peN1
  ppN1 <..> prN1
  prN1 <..> peN1
}

artifact "M2 = E(N2pk, E(N3pk, E(Bpk, M)))" as M2
note right of M2
    From: ada@pep.foundation
    To: remailer@riseup.net
end note

pN1 - -> M2 : SMTP
M2 - -> pN2 : SMTP

node "mail.riseup.net (Node 2)" as N2 {
 component "Postfix daemon" as pN2 {
  artifact "Postfix pipe process" as ppN2
 }
   artifact "pEpRemailer" as prN2
   artifact "libpEpEngine.so" as peN2
  ppN2 <..> prN2
  prN2 <..> peN2
}

artifact "M1 = E(N3pk, E(Bpk, M)))" as M1
note right of M1
    From: ada@pep.foundation
    To: remailer@wauland.de
end note

pN2 - -> M1 : SMTP
M1 - -> pN3 : SMTP

node "mail.wauland.de (Node 3)" as N3 {
 component "Postfix daemon" as pN3 {
  artifact "Postfix pipe process" as ppN3
 }
    artifact "pEpRemailer" as prN3
    artifact "libpEpEngine.so" as peN3
  ppN3 <..> prN3
  prN3 <..> peN3
}

artifact "M = E(Bpk, M)))" as M0
note right of M0
    From: ada@pep.foundation
    To: betty@gmail.com
end note

pN3- -> M0 : SMTP
M0 - -> B : SMTP

node "gmail.com (B)" as B {
}

artifact "M = E(Bpk, M)))" as M01

B - -> M01 : IMAP/MAPI?

node "Betty's laptop" as Betty {
    artifact "Thunderbird" as TB
    artifact "libpEpEngine.so" as peB
    artifact M

    TB ..> M
    TB <..> peB

}

M01 - -> TB: IMAP/MAPI?

legend
Case scenario: Ada, from her Android mobile, sends a message to Betty,
who receives on her Linux laptop.
endlegend

rectangle Legend {
node "hardware" {
   component "Group of processes" {
       artifact "Binary, library or process"
   }
   X <..> Y : calls in memory
}
  file "Data that is being transmited encrypted" as data
  note right of data
    data that is transmitted in clear
  end note
  Y - -> data : network transport
  data - -> Z : network transport
}

@enduml

PlantUML version 1.2020.02(Sun Mar 01 10:22:07 GMT 2020)
(GPL source distribution)
Java Runtime: Java(TM) SE Runtime Environment
JVM: Java HotSpot(TM) 64-Bit Server VM
Java Version: 1.8.0_241-b07
Operating System: Linux
Default Encoding: UTF-8
Language: en
Country: US
--></g></svg>