<?xml version="1.0" encoding="UTF-8" standalone="no"?><svg xmlns="http://www.w3.org/2000/svg" xmlns:xlink="http://www.w3.org/1999/xlink" contentScriptType="application/ecmascript" contentStyleType="text/css" height="1570px" preserveAspectRatio="none" style="width:574px;height:1570px;" version="1.1" viewBox="0 0 574 1570" width="574px" zoomAndPan="magnify"><defs><filter height="300%" id="foom6sw1cqubg" width="300%" x="-1" y="-1"><feGaussianBlur result="blurOut" stdDeviation="2.0"/><feColorMatrix in="blurOut" result="blurOut2" type="matrix" values="0 0 0 0 0 0 0 0 0 0 0 0 0 0 0 0 0 0 .4 0"/><feOffset dx="4.0" dy="4.0" in="blurOut2" result="blurOut3"/><feBlend in="SourceGraphic" in2="blurOut3" mode="normal"/></filter></defs><g><text fill="#000000" font-family="sans-serif" font-size="18" lengthAdjust="spacingAndGlyphs" textLength="429" x="76" y="16.708">"Physical components and messages exchanged"</text><!--MD5=[611bece13f09757583f55a1588191e28]
entity Ada--><polygon fill="#FFFFFF" filter="url(#foom6sw1cqubg)" points="85.5,38.9531,95.5,28.9531,252.5,28.9531,252.5,65.25,242.5,75.25,85.5,75.25,85.5,38.9531" style="stroke: #000000; stroke-width: 1.5;"/><line style="stroke: #000000; stroke-width: 1.5;" x1="242.5" x2="251.5" y1="38.9531" y2="29.9531"/><line style="stroke: #000000; stroke-width: 1.5;" x1="85.5" x2="242.5" y1="38.9531" y2="38.9531"/><line style="stroke: #000000; stroke-width: 1.5;" x1="242.5" x2="242.5" y1="38.9531" y2="75.25"/><text fill="#000000" font-family="sans-serif" font-size="14" lengthAdjust="spacingAndGlyphs" textLength="127" x="100.5" y="61.9482">Ada's mobile (Ada)</text><!--MD5=[770389ab9df153645bc6ef28055eb2b5]
entity A--><polygon fill="#FFFFFF" filter="url(#foom6sw1cqubg)" points="69.5,278.9531,79.5,268.9531,268.5,268.9531,268.5,305.25,258.5,315.25,69.5,315.25,69.5,278.9531" style="stroke: #000000; stroke-width: 1.5;"/><line style="stroke: #000000; stroke-width: 1.5;" x1="258.5" x2="267.5" y1="278.9531" y2="269.9531"/><line style="stroke: #000000; stroke-width: 1.5;" x1="69.5" x2="258.5" y1="278.9531" y2="278.9531"/><line style="stroke: #000000; stroke-width: 1.5;" x1="258.5" x2="258.5" y1="278.9531" y2="315.25"/><text fill="#000000" font-family="sans-serif" font-size="14" lengthAdjust="spacingAndGlyphs" textLength="159" x="84.5" y="301.9482">mail.pEp.foundation (A)</text><!--MD5=[f042970fa631b194e0ab6c1248938917]
entity N1--><polygon fill="#FFFFFF" filter="url(#foom6sw1cqubg)" points="60,502.9531,70,492.9531,278,492.9531,278,529.25,268,539.25,60,539.25,60,502.9531" style="stroke: #000000; stroke-width: 1.5;"/><line style="stroke: #000000; stroke-width: 1.5;" x1="268" x2="277" y1="502.9531" y2="493.9531"/><line style="stroke: #000000; stroke-width: 1.5;" x1="60" x2="268" y1="502.9531" y2="502.9531"/><line style="stroke: #000000; stroke-width: 1.5;" x1="268" x2="268" y1="502.9531" y2="539.25"/><text fill="#000000" font-family="sans-serif" font-size="14" lengthAdjust="spacingAndGlyphs" textLength="178" x="75" y="525.9482">mail.systemli.org (Node 1)</text><!--MD5=[4b5ab69de11007997fdc27e7483449f4]
entity N2--><polygon fill="#FFFFFF" filter="url(#foom6sw1cqubg)" points="66.5,742.9531,76.5,732.9531,271.5,732.9531,271.5,769.25,261.5,779.25,66.5,779.25,66.5,742.9531" style="stroke: #000000; stroke-width: 1.5;"/><line style="stroke: #000000; stroke-width: 1.5;" x1="261.5" x2="270.5" y1="742.9531" y2="733.9531"/><line style="stroke: #000000; stroke-width: 1.5;" x1="66.5" x2="261.5" y1="742.9531" y2="742.9531"/><line style="stroke: #000000; stroke-width: 1.5;" x1="261.5" x2="261.5" y1="742.9531" y2="779.25"/><text fill="#000000" font-family="sans-serif" font-size="14" lengthAdjust="spacingAndGlyphs" textLength="165" x="81.5" y="765.9482">mail.riseup.net (Node 2)</text><!--MD5=[88d2825575bc912acb410aaf1314a865]
entity N3--><polygon fill="#FFFFFF" filter="url(#foom6sw1cqubg)" points="62,982.9531,72,972.9531,276,972.9531,276,1009.25,266,1019.25,62,1019.25,62,982.9531" style="stroke: #000000; stroke-width: 1.5;"/><line style="stroke: #000000; stroke-width: 1.5;" x1="266" x2="275" y1="982.9531" y2="973.9531"/><line style="stroke: #000000; stroke-width: 1.5;" x1="62" x2="266" y1="982.9531" y2="982.9531"/><line style="stroke: #000000; stroke-width: 1.5;" x1="266" x2="266" y1="982.9531" y2="1019.25"/><text fill="#000000" font-family="sans-serif" font-size="14" lengthAdjust="spacingAndGlyphs" textLength="174" x="77" y="1005.9482">mail.wauland.de (Node 3)</text><!--MD5=[b2d39259b6aeabc16b394deeb0238426]
entity B--><polygon fill="#FFFFFF" filter="url(#foom6sw1cqubg)" points="102,1222.9531,112,1212.9531,236,1212.9531,236,1249.25,226,1259.25,102,1259.25,102,1222.9531" style="stroke: #000000; stroke-width: 1.5;"/><line style="stroke: #000000; stroke-width: 1.5;" x1="226" x2="235" y1="1222.9531" y2="1213.9531"/><line style="stroke: #000000; stroke-width: 1.5;" x1="102" x2="226" y1="1222.9531" y2="1222.9531"/><line style="stroke: #000000; stroke-width: 1.5;" x1="226" x2="226" y1="1222.9531" y2="1259.25"/><text fill="#000000" font-family="sans-serif" font-size="14" lengthAdjust="spacingAndGlyphs" textLength="94" x="117" y="1245.9482">gmail.com (B)</text><!--MD5=[5aa96b9182ec659012bb83cc39d7be15]
entity Betty--><polygon fill="#FFFFFF" filter="url(#foom6sw1cqubg)" points="102,1462.9531,112,1452.9531,236,1452.9531,236,1489.25,226,1499.25,102,1499.25,102,1462.9531" style="stroke: #000000; stroke-width: 1.5;"/><line style="stroke: #000000; stroke-width: 1.5;" x1="226" x2="235" y1="1462.9531" y2="1453.9531"/><line style="stroke: #000000; stroke-width: 1.5;" x1="102" x2="226" y1="1462.9531" y2="1462.9531"/><line style="stroke: #000000; stroke-width: 1.5;" x1="226" x2="226" y1="1462.9531" y2="1499.25"/><text fill="#000000" font-family="sans-serif" font-size="14" lengthAdjust="spacingAndGlyphs" textLength="94" x="117" y="1485.9482">Betty's laptop</text><!--MD5=[98e1022820387e41ed948aad0d0e2ebd]
entity M3--><polygon fill="#FEFECE" filter="url(#foom6sw1cqubg)" points="11,153.9531,11,190.25,327,190.25,327,163.9531,317,153.9531,11,153.9531" style="stroke: #000000; stroke-width: 1.5;"/><path d="M317,153.9531 L317,163.9531 L327,163.9531 " fill="#FEFECE" style="stroke: #000000; stroke-width: 1.5;"/><text fill="#000000" font-family="sans-serif" font-size="14" lengthAdjust="spacingAndGlyphs" textLength="296" x="21" y="176.9482">M3 = E(N1pk, E(N2pk, E(N3pk, E(Bpk, M))))</text><path d="M361.5,151.9531 L361.5,167.9531 L327.0273,171.9531 L361.5,175.9531 L361.5,192.2188 A0,0 0 0 0 361.5,192.2188 L556.5,192.2188 A0,0 0 0 0 556.5,192.2188 L556.5,161.9531 L546.5,151.9531 L361.5,151.9531 A0,0 0 0 0 361.5,151.9531 " fill="#FBFB77" filter="url(#foom6sw1cqubg)" style="stroke: #A80036; stroke-width: 1.0;"/><path d="M546.5,151.9531 L546.5,161.9531 L556.5,161.9531 L546.5,151.9531 " fill="#FBFB77" style="stroke: #A80036; stroke-width: 1.0;"/><text fill="#000000" font-family="sans-serif" font-size="13" lengthAdjust="spacingAndGlyphs" textLength="174" x="367.5" y="169.02">From: ada@pep.foundation</text><text fill="#000000" font-family="sans-serif" font-size="13" lengthAdjust="spacingAndGlyphs" textLength="167" x="367.5" y="184.1528">To: remailer@systemli.org</text><!--MD5=[3e8d45a72a862f07a2e383e5806cfaed]
entity M3bis--><rect fill="#FEFECE" filter="url(#foom6sw1cqubg)" height="39.2969" style="stroke: #000000; stroke-width: 1.5;" width="326" x="6" y="392.4531"/><polygon fill="#FEFECE" points="315,397.4531,315,411.4531,327,411.4531,327,403.4531,321,397.4531,315,397.4531" style="stroke: #000000; stroke-width: 1.5;"/><line style="stroke: #000000; stroke-width: 1.5;" x1="321" x2="321" y1="397.4531" y2="403.4531"/><line style="stroke: #000000; stroke-width: 1.5;" x1="327" x2="321" y1="403.4531" y2="403.4531"/><text fill="#000000" font-family="sans-serif" font-size="14" lengthAdjust="spacingAndGlyphs" textLength="296" x="16" y="418.4482">M3 = E(N1pk, E(N2pk, E(N3pk, E(Bpk, M))))</text><path d="M367.5,391.9531 L367.5,407.9531 L332.0313,411.9531 L367.5,415.9531 L367.5,432.2188 A0,0 0 0 0 367.5,432.2188 L562.5,432.2188 A0,0 0 0 0 562.5,432.2188 L562.5,401.9531 L552.5,391.9531 L367.5,391.9531 A0,0 0 0 0 367.5,391.9531 " fill="#FBFB77" filter="url(#foom6sw1cqubg)" style="stroke: #A80036; stroke-width: 1.0;"/><path d="M552.5,391.9531 L552.5,401.9531 L562.5,401.9531 L552.5,391.9531 " fill="#FBFB77" style="stroke: #A80036; stroke-width: 1.0;"/><text fill="#000000" font-family="sans-serif" font-size="13" lengthAdjust="spacingAndGlyphs" textLength="174" x="373.5" y="409.02">From: ada@pep.foundation</text><text fill="#000000" font-family="sans-serif" font-size="13" lengthAdjust="spacingAndGlyphs" textLength="167" x="373.5" y="424.1528">To: remailer@systemli.org</text><!--MD5=[337636605fd75d21901d5b457bca3a06]
entity M2--><rect fill="#FEFECE" filter="url(#foom6sw1cqubg)" height="39.2969" style="stroke: #000000; stroke-width: 1.5;" width="263" x="37.5" y="616.4531"/><polygon fill="#FEFECE" points="283.5,621.4531,283.5,635.4531,295.5,635.4531,295.5,627.4531,289.5,621.4531,283.5,621.4531" style="stroke: #000000; stroke-width: 1.5;"/><line style="stroke: #000000; stroke-width: 1.5;" x1="289.5" x2="289.5" y1="621.4531" y2="627.4531"/><line style="stroke: #000000; stroke-width: 1.5;" x1="295.5" x2="289.5" y1="627.4531" y2="627.4531"/><text fill="#000000" font-family="sans-serif" font-size="14" lengthAdjust="spacingAndGlyphs" textLength="233" x="47.5" y="642.4482">M2 = E(N2pk, E(N3pk, E(Bpk, M)))</text><path d="M335.5,615.9531 L335.5,631.9531 L300.7422,635.9531 L335.5,639.9531 L335.5,656.2188 A0,0 0 0 0 335.5,656.2188 L530.5,656.2188 A0,0 0 0 0 530.5,656.2188 L530.5,625.9531 L520.5,615.9531 L335.5,615.9531 A0,0 0 0 0 335.5,615.9531 " fill="#FBFB77" filter="url(#foom6sw1cqubg)" style="stroke: #A80036; stroke-width: 1.0;"/><path d="M520.5,615.9531 L520.5,625.9531 L530.5,625.9531 L520.5,615.9531 " fill="#FBFB77" style="stroke: #A80036; stroke-width: 1.0;"/><text fill="#000000" font-family="sans-serif" font-size="13" lengthAdjust="spacingAndGlyphs" textLength="174" x="341.5" y="633.02">From: ada@pep.foundation</text><text fill="#000000" font-family="sans-serif" font-size="13" lengthAdjust="spacingAndGlyphs" textLength="153" x="341.5" y="648.1528">To: remailer@riseup.net</text><!--MD5=[9d3ca2edc78b2fd8c3bd75c02986111b]
entity M1--><rect fill="#FEFECE" filter="url(#foom6sw1cqubg)" height="39.2969" style="stroke: #000000; stroke-width: 1.5;" width="205" x="66.5" y="856.4531"/><polygon fill="#FEFECE" points="254.5,861.4531,254.5,875.4531,266.5,875.4531,266.5,867.4531,260.5,861.4531,254.5,861.4531" style="stroke: #000000; stroke-width: 1.5;"/><line style="stroke: #000000; stroke-width: 1.5;" x1="260.5" x2="260.5" y1="861.4531" y2="867.4531"/><line style="stroke: #000000; stroke-width: 1.5;" x1="266.5" x2="260.5" y1="867.4531" y2="867.4531"/><text fill="#000000" font-family="sans-serif" font-size="14" lengthAdjust="spacingAndGlyphs" textLength="175" x="76.5" y="882.4482">M1 = E(N3pk, E(Bpk, M)))</text><path d="M306.5,855.9531 L306.5,871.9531 L271.8125,875.9531 L306.5,879.9531 L306.5,896.2188 A0,0 0 0 0 306.5,896.2188 L501.5,896.2188 A0,0 0 0 0 501.5,896.2188 L501.5,865.9531 L491.5,855.9531 L306.5,855.9531 A0,0 0 0 0 306.5,855.9531 " fill="#FBFB77" filter="url(#foom6sw1cqubg)" style="stroke: #A80036; stroke-width: 1.0;"/><path d="M491.5,855.9531 L491.5,865.9531 L501.5,865.9531 L491.5,855.9531 " fill="#FBFB77" style="stroke: #A80036; stroke-width: 1.0;"/><text fill="#000000" font-family="sans-serif" font-size="13" lengthAdjust="spacingAndGlyphs" textLength="174" x="312.5" y="873.02">From: ada@pep.foundation</text><text fill="#000000" font-family="sans-serif" font-size="13" lengthAdjust="spacingAndGlyphs" textLength="161" x="312.5" y="888.1528">To: remailer@wauland.de</text><!--MD5=[67df44c990e994ab2eaf81489c255ee0]
entity M0--><rect fill="#FEFECE" filter="url(#foom6sw1cqubg)" height="39.2969" style="stroke: #000000; stroke-width: 1.5;" width="138" x="100" y="1096.4531"/><polygon fill="#FEFECE" points="221,1101.4531,221,1115.4531,233,1115.4531,233,1107.4531,227,1101.4531,221,1101.4531" style="stroke: #000000; stroke-width: 1.5;"/><line style="stroke: #000000; stroke-width: 1.5;" x1="227" x2="227" y1="1101.4531" y2="1107.4531"/><line style="stroke: #000000; stroke-width: 1.5;" x1="233" x2="227" y1="1107.4531" y2="1107.4531"/><text fill="#000000" font-family="sans-serif" font-size="14" lengthAdjust="spacingAndGlyphs" textLength="108" x="110" y="1122.4482">M = E(Bpk, M)))</text><path d="M273.5,1095.9531 L273.5,1111.9531 L238.043,1115.9531 L273.5,1119.9531 L273.5,1136.2188 A0,0 0 0 0 273.5,1136.2188 L468.5,1136.2188 A0,0 0 0 0 468.5,1136.2188 L468.5,1105.9531 L458.5,1095.9531 L273.5,1095.9531 A0,0 0 0 0 273.5,1095.9531 " fill="#FBFB77" filter="url(#foom6sw1cqubg)" style="stroke: #A80036; stroke-width: 1.0;"/><path d="M458.5,1095.9531 L458.5,1105.9531 L468.5,1105.9531 L458.5,1095.9531 " fill="#FBFB77" style="stroke: #A80036; stroke-width: 1.0;"/><text fill="#000000" font-family="sans-serif" font-size="13" lengthAdjust="spacingAndGlyphs" textLength="174" x="279.5" y="1113.02">From: ada@pep.foundation</text><text fill="#000000" font-family="sans-serif" font-size="13" lengthAdjust="spacingAndGlyphs" textLength="136" x="279.5" y="1128.1528">To: betty@gmail.com</text><!--MD5=[22026f4dcab0eb9d2a828c2d1bf38901]
entity M01--><rect fill="#FEFECE" filter="url(#foom6sw1cqubg)" height="39.2969" style="stroke: #000000; stroke-width: 1.5;" width="138" x="100" y="1336.4531"/><polygon fill="#FEFECE" points="221,1341.4531,221,1355.4531,233,1355.4531,233,1347.4531,227,1341.4531,221,1341.4531" style="stroke: #000000; stroke-width: 1.5;"/><line style="stroke: #000000; stroke-width: 1.5;" x1="227" x2="227" y1="1341.4531" y2="1347.4531"/><line style="stroke: #000000; stroke-width: 1.5;" x1="233" x2="227" y1="1347.4531" y2="1347.4531"/><text fill="#000000" font-family="sans-serif" font-size="14" lengthAdjust="spacingAndGlyphs" textLength="108" x="110" y="1362.4482">M = E(Bpk, M)))</text><path d="M273.5,1335.9531 L273.5,1351.9531 L238.043,1355.9531 L273.5,1359.9531 L273.5,1376.2188 A0,0 0 0 0 273.5,1376.2188 L468.5,1376.2188 A0,0 0 0 0 468.5,1376.2188 L468.5,1345.9531 L458.5,1335.9531 L273.5,1335.9531 A0,0 0 0 0 273.5,1335.9531 " fill="#FBFB77" filter="url(#foom6sw1cqubg)" style="stroke: #A80036; stroke-width: 1.0;"/><path d="M458.5,1335.9531 L458.5,1345.9531 L468.5,1345.9531 L458.5,1335.9531 " fill="#FBFB77" style="stroke: #A80036; stroke-width: 1.0;"/><text fill="#000000" font-family="sans-serif" font-size="13" lengthAdjust="spacingAndGlyphs" textLength="174" x="279.5" y="1353.02">From: ada@pep.foundation</text><text fill="#000000" font-family="sans-serif" font-size="13" lengthAdjust="spacingAndGlyphs" textLength="136" x="279.5" y="1368.1528">To: betty@gmail.com</text><!--MD5=[3d9f6ee76a121f53629d184afb14ffc5]
link Ada to M3--><path d="M169,75.0903 C169,96.1863 169,127.2089 169,148.4261 " fill="none" id="Ada-&gt;M3" style="stroke: #A80036; stroke-width: 1.0;"/><polygon fill="#A80036" points="169,153.5971,173,144.5971,169,148.5971,165,144.5971,169,153.5971" style="stroke: #A80036; stroke-width: 1.0;"/><text fill="#000000" font-family="sans-serif" font-size="13" lengthAdjust="spacingAndGlyphs" textLength="35" x="170" y="118.02">SMTP</text><!--MD5=[3df84e5e43413032cb999c810bdc6da4]
link M3 to A--><path d="M169,190.1785 C169,209.6843 169,240.8838 169,263.6021 " fill="none" id="M3-&gt;A" style="stroke: #A80036; stroke-width: 1.0;"/><polygon fill="#A80036" points="169,268.6024,173,259.6024,169,263.6024,165,259.6024,169,268.6024" style="stroke: #A80036; stroke-width: 1.0;"/><text fill="#000000" font-family="sans-serif" font-size="13" lengthAdjust="spacingAndGlyphs" textLength="35" x="170" y="235.02">SMTP</text><!--MD5=[ee63e067bb2462481d03f615f22acdbb]
link A to M3bis--><path d="M169,315.0903 C169,335.6841 169,365.7373 169,386.8942 " fill="none" id="A-&gt;M3bis" style="stroke: #A80036; stroke-width: 1.0;"/><polygon fill="#A80036" points="169,392.0702,173,383.0702,169,387.0702,165,383.0702,169,392.0702" style="stroke: #A80036; stroke-width: 1.0;"/><text fill="#000000" font-family="sans-serif" font-size="13" lengthAdjust="spacingAndGlyphs" textLength="35" x="170" y="358.02">SMTP</text><!--MD5=[64088a4ed30ac6e0530ccbbcc80ade08]
link M3bis to N1--><path d="M169,431.5147 C169,447.2986 169,469.7215 169,487.4941 " fill="none" id="M3bis-&gt;N1" style="stroke: #A80036; stroke-width: 1.0;"/><polygon fill="#A80036" points="169,492.8479,173,483.8479,169,487.8479,165,483.8479,169,492.8479" style="stroke: #A80036; stroke-width: 1.0;"/><!--MD5=[f507eaaef6f0f374f223bd4389c3ab87]
link N1 to M2--><path d="M169,539.0903 C169,559.6841 169,589.7373 169,610.8942 " fill="none" id="N1-&gt;M2" style="stroke: #A80036; stroke-width: 1.0;"/><polygon fill="#A80036" points="169,616.0702,173,607.0702,169,611.0702,165,607.0702,169,616.0702" style="stroke: #A80036; stroke-width: 1.0;"/><text fill="#000000" font-family="sans-serif" font-size="13" lengthAdjust="spacingAndGlyphs" textLength="35" x="170" y="582.02">SMTP</text><!--MD5=[fd0cd7df6ac4450d1587db970d1e4a2a]
link M2 to N2--><path d="M169,655.5002 C169,675.0521 169,705.3313 169,727.5372 " fill="none" id="M2-&gt;N2" style="stroke: #A80036; stroke-width: 1.0;"/><polygon fill="#A80036" points="169,732.7125,173,723.7125,169,727.7125,165,723.7125,169,732.7125" style="stroke: #A80036; stroke-width: 1.0;"/><text fill="#000000" font-family="sans-serif" font-size="13" lengthAdjust="spacingAndGlyphs" textLength="35" x="170" y="699.02">SMTP</text><!--MD5=[c6728bcb24efab51050c6169c04f1b81]
link N2 to M1--><path d="M169,779.0903 C169,799.6841 169,829.7373 169,850.8942 " fill="none" id="N2-&gt;M1" style="stroke: #A80036; stroke-width: 1.0;"/><polygon fill="#A80036" points="169,856.0702,173,847.0702,169,851.0702,165,847.0702,169,856.0702" style="stroke: #A80036; stroke-width: 1.0;"/><text fill="#000000" font-family="sans-serif" font-size="13" lengthAdjust="spacingAndGlyphs" textLength="35" x="170" y="822.02">SMTP</text><!--MD5=[36451b841f998ed711239cec52b0a8bc]
link M1 to N3--><path d="M169,895.5002 C169,915.0521 169,945.3313 169,967.5372 " fill="none" id="M1-&gt;N3" style="stroke: #A80036; stroke-width: 1.0;"/><polygon fill="#A80036" points="169,972.7125,173,963.7125,169,967.7125,165,963.7125,169,972.7125" style="stroke: #A80036; stroke-width: 1.0;"/><text fill="#000000" font-family="sans-serif" font-size="13" lengthAdjust="spacingAndGlyphs" textLength="35" x="170" y="939.02">SMTP</text><!--MD5=[4d1b4e9065f5273992311695f5e527a4]
link N3 to M0--><path d="M169,1019.0903 C169,1039.6841 169,1069.7373 169,1090.8942 " fill="none" id="N3-&gt;M0" style="stroke: #A80036; stroke-width: 1.0;"/><polygon fill="#A80036" points="169,1096.0702,173,1087.0702,169,1091.0702,165,1087.0702,169,1096.0702" style="stroke: #A80036; stroke-width: 1.0;"/><text fill="#000000" font-family="sans-serif" font-size="13" lengthAdjust="spacingAndGlyphs" textLength="35" x="170" y="1062.02">SMTP</text><!--MD5=[385069dbfd1cb7c4f4d712e36502197e]
link M0 to B--><path d="M169,1135.5002 C169,1155.0521 169,1185.3313 169,1207.5372 " fill="none" id="M0-&gt;B" style="stroke: #A80036; stroke-width: 1.0;"/><polygon fill="#A80036" points="169,1212.7125,173,1203.7125,169,1207.7125,165,1203.7125,169,1212.7125" style="stroke: #A80036; stroke-width: 1.0;"/><text fill="#000000" font-family="sans-serif" font-size="13" lengthAdjust="spacingAndGlyphs" textLength="35" x="170" y="1179.02">SMTP</text><!--MD5=[ff8b0dc7f252189bfa0ae6eb9e19b3ea]
link B to M01--><path d="M169,1259.0903 C169,1279.6841 169,1309.7373 169,1330.8942 " fill="none" id="B-&gt;M01" style="stroke: #A80036; stroke-width: 1.0;"/><polygon fill="#A80036" points="169,1336.0702,173,1327.0702,169,1331.0702,165,1327.0702,169,1336.0702" style="stroke: #A80036; stroke-width: 1.0;"/><text fill="#000000" font-family="sans-serif" font-size="13" lengthAdjust="spacingAndGlyphs" textLength="73" x="170" y="1302.02">IMAP/MAPI?</text><!--MD5=[9913ea16b8a718077ea6b7ce4d49f126]
link M01 to Betty--><path d="M169,1375.5002 C169,1395.0521 169,1425.3313 169,1447.5372 " fill="none" id="M01-&gt;Betty" style="stroke: #A80036; stroke-width: 1.0;"/><polygon fill="#A80036" points="169,1452.7125,173,1443.7125,169,1447.7125,165,1443.7125,169,1452.7125" style="stroke: #A80036; stroke-width: 1.0;"/><text fill="#000000" font-family="sans-serif" font-size="13" lengthAdjust="spacingAndGlyphs" textLength="73" x="170" y="1419.02">IMAP/MAPI?</text><rect fill="#DDDDDD" height="42.5938" rx="5" ry="5" style="stroke: #000000; stroke-width: 1.0;" width="511" x="34.5" y="1516.9531"/><text fill="#000000" font-family="sans-serif" font-size="14" lengthAdjust="spacingAndGlyphs" textLength="499" x="40.5" y="1534.9482">Case scenario: Ada, from her Android mobile, sends a message to Betty,</text><text fill="#000000" font-family="sans-serif" font-size="14" lengthAdjust="spacingAndGlyphs" textLength="242" x="40.5" y="1551.2451">who receives it on her Linux laptop.</text><!--MD5=[676fb4f1a734ca30b51d01ded67870e6]
@startuml

title "Physical components and messages exchanged"

node "Ada's mobile (Ada)" as Ada {
}
file "M3 = E(N1pk, E(N2pk, E(N3pk, E(Bpk, M))))" as M3
note right of M3
  From: ada@pep.foundation
  To: remailer@systemli.org
end note

Ada - -> M3: SMTP

node "mail.pEp.foundation (A)" as A{
}
M3 - -> A : SMTP

artifact "M3 = E(N1pk, E(N2pk, E(N3pk, E(Bpk, M))))" as M3bis
note right of M3bis
  From: ada@pep.foundation
  To: remailer@systemli.org
end note

A - -> M3bis : SMTP
M3bis - -> N1

node "mail.systemli.org (Node 1)" as N1 {
}

artifact "M2 = E(N2pk, E(N3pk, E(Bpk, M)))" as M2
note right of M2
  From: ada@pep.foundation
  To: remailer@riseup.net
end note

N1 - -> M2 : SMTP
M2 - -> N2 : SMTP

node "mail.riseup.net (Node 2)" as N2 {
}

artifact "M1 = E(N3pk, E(Bpk, M)))" as M1
note right of M1
  From: ada@pep.foundation
  To: remailer@wauland.de
end note

N2 - -> M1 : SMTP
M1 - -> N3 : SMTP

node "mail.wauland.de (Node 3)" as N3 {
}

artifact "M = E(Bpk, M)))" as M0
note right of M0
  From: ada@pep.foundation
  To: betty@gmail.com
end note

N3- -> M0 : SMTP
M0 - -> B : SMTP

node "gmail.com (B)" as B {
}

artifact "M = E(Bpk, M)))" as M01
note right of M01
  From: ada@pep.foundation
  To: betty@gmail.com
end note

B - -> M01 : IMAP/MAPI?

node "Betty's laptop" as Betty {
}

M01 - -> Betty: IMAP/MAPI?

legend
  Case scenario: Ada, from her Android mobile, sends a message to Betty,
  who receives it on her Linux laptop.
endlegend

@enduml

PlantUML version 1.2020.02(Sun Mar 01 10:22:07 GMT 2020)
(GPL source distribution)
Java Runtime: Java(TM) SE Runtime Environment
JVM: Java HotSpot(TM) 64-Bit Server VM
Java Version: 1.8.0_241-b07
Operating System: Linux
Default Encoding: UTF-8
Language: en
Country: US
--></g></svg>